<?xml version="1.0" standalone="no"?>
<!DOCTYPE svg PUBLIC "-//W3C//DTD SVG 20010904//EN"
 "http://www.w3.org/TR/2001/REC-SVG-20010904/DTD/svg10.dtd">
<svg version="1.0" xmlns="http://www.w3.org/2000/svg"
 width="200.000000pt" height="200.000000pt" viewBox="0 0 200.000000 200.000000"
 preserveAspectRatio="xMidYMid meet">
<metadata>
Created by potrace 1.11, written by Peter Selinger 2001-2013
</metadata>
<g transform="translate(0.000000,200.000000) scale(0.100000,-0.100000)"
fill="#000000" stroke="none">
<path d="M460 1677 c-85 -44 -140 -169 -140 -315 l0 -60 78 0 c42 0 83 0 90
-1 9 -1 12 -101 12 -467 0 -412 2 -470 16 -501 34 -70 11 -68 569 -67 485 0
502 0 540 20 47 24 100 89 115 142 6 20 14 65 17 98 l5 61 -88 2 c-49 1 -90 4
-92 6 -2 2 -5 226 -6 497 -1 474 -2 494 -21 527 -11 19 -33 43 -48 55 -28 21
-38 21 -516 24 l-487 3 -44 -24z m1005 -83 c19 -14 20 -28 22 -509 l3 -495
-53 -1 c-28 0 -211 -1 -404 -2 -346 -2 -353 -2 -353 -22 -2 -126 -26 -200 -66
-200 -19 0 -19 14 -24 600 -4 463 -8 605 -18 623 l-13 22 443 0 c379 -1 446
-3 463 -16z m-968 -134 l-2 -65 -43 -2 -43 -3 7 48 c7 51 27 107 46 130 19 23
37 -32 35 -108z m1163 -983 c0 -30 -33 -82 -66 -104 -25 -16 -61 -18 -437 -18
-225 0 -411 3 -413 6 -2 4 0 20 5 35 5 16 12 45 15 64 l6 35 445 2 445 2 0
-22z"/>
<path d="M820 1441 c0 -23 -6 -31 -31 -42 -58 -24 -75 -120 -27 -160 10 -10
43 -27 73 -39 54 -22 74 -43 52 -57 -20 -12 -50 -11 -95 4 -24 8 -45 13 -46
11 -1 -2 -7 -19 -14 -37 -14 -40 -10 -45 51 -61 32 -9 37 -15 37 -40 0 -29 2
-30 45 -30 43 0 44 1 40 30 -3 25 1 32 29 45 37 18 55 45 60 90 6 49 -22 83
-96 117 -48 22 -65 35 -61 46 5 12 19 13 69 9 l62 -6 7 35 c7 42 6 44 -37 53
-28 6 -33 11 -31 34 2 26 0 27 -42 27 -43 0 -45 -1 -45 -29z"/>
<path d="M1119 1418 c-1 -2 -3 -22 -4 -45 l-2 -43 138 0 c151 0 150 0 141 63
l-4 27 -134 0 c-74 0 -135 -1 -135 -2z"/>
<path d="M1117 1213 c-2 -5 -4 -24 -3 -43 l1 -35 137 -3 c150 -3 149 -3 140
61 l-4 27 -134 0 c-73 0 -135 -3 -137 -7z"/>
<path d="M1114 985 l0 -46 140 3 c139 3 140 3 139 26 -3 66 10 60 -141 61
l-138 1 0 -45z"/>
<path d="M736 820 c-1 -3 -2 -23 -2 -45 l1 -40 320 -1 c176 0 325 2 332 4 15
5 14 82 -1 83 -37 4 -648 3 -650 -1z"/>
</g>
</svg>
